dump.vcd
$date
	Sat Jun  5 02:54:22 2021
$end
$version
	QuestaSim Version 2020.1_1
$end
$timescale
	1ns
$end

$scope module top $end
$var parameter 32 ! CYCLETIME $end
$var parameter 32 " ONTIME $end
$var reg 1 # clk $end
$var reg 1 $ reset $end

$scope module PROCESSOR $end
$var reg 1 % clk $end
$var reg 1 & reset $end
$var reg 32 ' instruction [31:0] $end
$var reg 32 ( pcPlus4 [31:0] $end
$var reg 32 ) pc [31:0] $end
$var reg 1 * writeEnable $end
$var reg 32 + wbData [31:0] $end
$var reg 32 , immOut [31:0] $end
$var reg 32 - readData1 [31:0] $end
$var reg 32 . readData2 [31:0] $end
$var reg 9 / cntrl [8:0] $end
$var integer 32 0 clockCount $end
$var reg 32 1 aluOut [31:0] $end
$var reg 32 2 branchAddress [31:0] $end
$var reg 1 3 branchTaken $end
$var reg 32 4 writeData [31:0] $end
$var reg 32 5 dataOut [31:0] $end
$var reg 32 6 memDataOut [31:0] $end
$var reg 32 7 writeBackData [31:0] $end

$scope module IF $end
$var reg 1 8 clk $end
$var reg 1 9 reset $end
$var reg 32 : branchAddress [31:0] $end
$var reg 1 ; branchTaken $end
$var reg 32 < instruction [31:0] $end
$var reg 32 = pc [31:0] $end
$var reg 32 > branchMuxOut [31:0] $end
$var reg 32 ? pcNext [31:0] $end
$var reg 32 @ pcPlus4 [31:0] $end
$var reg 1 A addressOutOfBound $end

$scope module PC $end
$var reg 1 B clk $end
$var reg 1 C reset $end
$var reg 32 D d [31:0] $end
$var reg 32 E q [31:0] $end
$upscope $end

$scope module add $end
$var reg 32 F a [31:0] $end
$var reg 32 G b [31:0] $end
$var reg 1 H cin $end
$var reg 32 I sum [31:0] $end
$var reg 1 J cout $end
$upscope $end

$scope module IM $end
$var parameter 120 K FILENAME $end
$var reg 32 L address [31:0] $end
$var reg 32 M instruction [31:0] $end
$upscope $end

$scope module BRANCH $end
$var reg 32 N a [31:0] $end
$var reg 32 O b [31:0] $end
$var reg 1 P sel $end
$var reg 32 Q out [31:0] $end
$upscope $end
$upscope $end

$scope module ID $end
$var reg 32 R instruction [31:0] $end
$var reg 1 S clk $end
$var reg 1 T reset $end
$var reg 32 U writeData [31:0] $end
$var reg 1 V writeEnable $end
$var reg 32 W immOut [31:0] $end
$var reg 32 X readData1 [31:0] $end
$var reg 32 Y readData2 [31:0] $end
$var reg 9 Z cntrl [8:0] $end
$var reg 5 [ rs1 [4:0] $end
$var reg 5 \ rs2 [4:0] $end
$var reg 5 ] rd [4:0] $end

$scope module DEC $end
$var reg 32 ^ instruction [31:0] $end
$var reg 5 _ rs1 [4:0] $end
$var reg 5 ` rs2 [4:0] $end
$var reg 5 a rd [4:0] $end
$upscope $end

$scope module RF $end
$var reg 1 b clk $end
$var reg 1 c reset $end
$var reg 1 d writeEnable $end
$var reg 5 e rs1 [4:0] $end
$var reg 5 f rs2 [4:0] $end
$var reg 5 g rd [4:0] $end
$var reg 32 h writeData [31:0] $end
$var reg 32 i readData1 [31:0] $end
$var reg 32 j readData2 [31:0] $end
$upscope $end

$scope module CON $end
$var reg 32 k instr [31:0] $end
$var reg 9 l cntrl [8:0] $end
$upscope $end

$scope module IMMG $end
$var reg 32 m instr [31:0] $end
$var reg 32 n immOut [31:0] $end
$upscope $end
$upscope $end

$scope module IE $end
$var reg 32 o readData1 [31:0] $end
$var reg 32 p readData2 [31:0] $end
$var reg 32 q immOut [31:0] $end
$var reg 32 r pcPlus4 [31:0] $end
$var reg 9 s cntrl [8:0] $end
$var reg 32 t aluOut [31:0] $end
$var reg 32 u newAddress [31:0] $end
$var reg 32 v branchAddress [31:0] $end
$var reg 32 w writeData [31:0] $end
$var reg 1 x zero $end
$var reg 1 y branchTaken $end
$var reg 32 z aluIn1 [31:0] $end
$var reg 1 { addressOutOfBound $end
$var reg 32 | aluIn2 [31:0] $end
$var reg 32 } leftShiftedImm [31:0] $end

$scope module OP2 $end
$var reg 32 ~ a [31:0] $end
$var reg 32 !! b [31:0] $end
$var reg 1 "! sel $end
$var reg 32 #! out [31:0] $end
$upscope $end

$scope module ALU $end
$var reg 3 $! aluop [2:0] $end
$var reg 1 %! jump $end
$var reg 32 &! a [31:0] $end
$var reg 32 '! b [31:0] $end
$var reg 32 (! out [31:0] $end
$var reg 1 )! zero $end
$var reg 1 *! branchTaken $end
$upscope $end

$scope module ADDBRANCH $end
$var reg 32 +! a [31:0] $end
$var reg 32 ,! b [31:0] $end
$var reg 1 -! cin $end
$var reg 32 .! sum [31:0] $end
$var reg 1 /! cout $end
$upscope $end

$scope module BRANCHANDJUMP $end
$var reg 32 0! a [31:0] $end
$var reg 32 1! b [31:0] $end
$var reg 1 2! sel $end
$var reg 32 3! out [31:0] $end
$upscope $end
$upscope $end

$scope module IM $end
$var reg 1 4! clk $end
$var reg 1 5! reset $end
$var reg 32 6! address [31:0] $end
$var reg 9 7! cntrl [8:0] $end
$var reg 32 8! writeData [31:0] $end
$var reg 32 9! wbData [31:0] $end
$var reg 32 :! memDataOut [31:0] $end
$var reg 32 ;! dataOut [31:0] $end
$var reg 32 <! writeBackData [31:0] $end

$scope module DM $end
$var parameter 120 =! FILENAME $end
$var reg 1 >! clk $end
$var reg 1 ?! reset $end
$var reg 32 @! dataIn [31:0] $end
$var reg 32 A! address [31:0] $end
$var reg 1 B! memWriteEnable $end
$var reg 32 C! dataOut [31:0] $end
$upscope $end
$upscope $end

$scope module WB $end
$var reg 32 D! writeBackData [31:0] $end
$var reg 32 E! memDataOut [31:0] $end
$var reg 9 F! cntrl [8:0] $end
$var reg 32 G! wbData [31:0] $end

$scope module WB $end
$var reg 32 H! a [31:0] $end
$var reg 32 I! b [31:0] $end
$var reg 1 J! sel $end
$var reg 32 K! out [31:0] $end
$upscope $end
$upscope $end
$upscope $end
$upscope $end

$scope begin std $end
$upscope $end

$scope begin mips_pkg $end
$var parameter 32 L! IMMSIZE $end
$var parameter 32 M! OPCODE $end
$var parameter 32 N! REGISTERNUMBER $end
$var parameter 32 O! DATA $end
$var parameter 32 P! ADDRESSWIDTH $end
$var parameter 32 Q! REGISTERWIDTH $end
$var parameter 32 R! MEMDEPTH $end
$var parameter 32 S! MEMWIDTH $end
$var parameter 32 T! INSTRUCTION_WIDTH $end
$var parameter 32 U! BYTESPERINSTRUCTION $end
$var integer 32 V! instructionCount $end
$var integer 32 W! arithmeticInstrCount $end
$var integer 32 X! logicalInstrCount $end
$var integer 32 Y! memoryInstrCount $end
$var integer 32 Z! branchInstrCount $end
$var reg 4096 [! memWriteStatus [4095:0] $end

$scope task countInstruction $end
$upscope $end

$scope task countArithmeticInstruction $end
$upscope $end

$scope task countLogicalInstruction $end
$upscope $end

$scope task countMemoryInstruction $end
$upscope $end

$scope task countBranchInstruction $end
$upscope $end
$upscope $end
$enddefinitions $end
#0
$dumpvars
bx [!
0#
1$
0%
1&
b100000010110000001100100100 '
b100 (
b0 )
x*
b1100100100 +
b1100100100 ,
b0 -
bx .
b11100000 /
b1100100100 1
b110010010000 2
03
bx 4
bx 5
bx 6
b1100100100 7
08
19
b110010010000 :
0;
b100000010110000001100100100 <
b0 =
b100 >
bx ?
b100 @
0A
0B
1C
b100 D
b0 E
b0 F
b100 G
0H
b100 I
0J
b0 L
b100000010110000001100100100 M
b110010010000 N
b100 O
0P
b100 Q
b100000010110000001100100100 R
0S
1T
b1100100100 U
xV
b1100100100 W
b0 X
bx Y
b11100000 Z
b0 [
bx \
b1011 ]
b100000010110000001100100100 ^
b0 _
bx `
b1011 a
0b
1c
1d
b0 e
bx f
b1011 g
b1100100100 h
b0 i
bx j
b100000010110000001100100100 k
b11100000 l
b100000010110000001100100100 m
b1100100100 n
b0 o
bx p
b1100100100 q
b0 r
b11100000 s
b1100100100 t
b110010010000 u
b110010010000 v
bx w
0x
0y
bx z
0{
b1100100100 |
bx }
bx ~
b1100100100 !!
0"!
b1100100100 #!
b0 $!
0%!
b0 &!
b1100100100 '!
b1100100100 (!
0)!
0*!
b0 +!
b110010010000 ,!
0-!
b110010010000 .!
0/!
b0 0!
b110010010000 1!
02!
b110010010000 3!
04!
15!
b1100100100 6!
b11100000 7!
bx 8!
b1100100100 9!
bx :!
bx ;!
b1100100100 <!
0>!
1?!
bx @!
b1100100100 A!
0B!
bx C!
b1100100100 D!
bx E!
b11100000 F!
b1100100100 G!
b1100100100 H!
bx I!
1J!
b1100100100 K!
b1010 !
b101 "
b10000 L!
b110 M!
b100000 N!
b100000 O!
b100000 P!
b101 Q!
b1000000000000 R!
b1000 S!
b100000 T!
b100 U!
b11010010110111001110011011101000111001001110101011000110111010001101001011011110110111000101110011011010110010101101101 K
b11010010110111001110011011101000111001001110101011000110111010001101001011011110110111000101110011011010110010101101101 =!
b1 V!
b1 W!
b0 X!
b0 Y!
b0 Z!
b0 0
$end
#5
1#
1%
18
1S
14!
1>!
1b
1B
b1100100 C!
b1100100 ;!
b1100100 :!
b1100100 6
b1100100 E!
b1100100 I!
#10
0#
0%
08
0S
04!
0>!
0b
0B
#15
1#
1%
18
1S
14!
1>!
1b
1B
0$
0&
09
0T
05!
0?!
0c
0C
#20
0#
0%
08
0S
04!
0>!
0b
0B
#25
1#
1%
18
1S
14!
1>!
1b
1B
b100 E
b100 =
b100 )
b100 F
b100 L
b100 r
b100 +!
b110010010100 .!
b100000011000000011000111100 M
b1000 I
b1000 @
b100000011000000011000111100 <
b110010010100 v
b110010010100 1!
b100000011000000011000111100 '
b1000 (
b1000 O
b1000 Q
b100000011000000011000111100 R
b110010010100 3!
b110010010100 u
b100000011000000011000111100 ^
b100000011000000011000111100 k
b100000011000000011000111100 m
b1000 >
b1000 D
b110010010100 2
b110010010100 :
b110010010100 N
b11000111100 n
b10 V!
b10 W!
b1100 a
b1100 ]
b11000111100 W
b11000111100 ,
b1100 g
b11000111100 q
b11000111100 !!
b1100011110000 ,!
b11000111100 #!
b11000111100 |
b11000111100 '!
b11000111100 (!
b1100011110100 .!
b1100011110100 v
b11000111100 t
b11000111100 1
b1100011110100 1!
b1100011110100 3!
b11000111100 6!
b11000111100 9!
b11000111100 <!
b11000111100 A!
b1100011110100 u
b1100011110100 2
b11000111100 7
b11000111100 D!
b1100011110100 :
b1100011110100 N
b11000111100 H!
b11000111100 K!
b11000111100 G!
b11000111100 +
b11000111100 U
b11000111100 h
b0 C!
b0 ;!
b0 :!
b0 6
b0 E!
b0 I!
#30
0#
0%
08
0S
04!
0>!
0b
0B
#35
1#
1%
18
1S
14!
1>!
1b
1B
b1000 E
b1000 =
b1000 )
b1000 F
b1000 L
b1000 r
b1000 +!
b1100011111000 .!
b100000011010000100101100000 M
b1100 I
b1100 @
b100000011010000100101100000 <
b1100011111000 v
b1100011111000 1!
b100000011010000100101100000 '
b1100 (
b1100 O
b1100 Q
b100000011010000100101100000 R
b1100011111000 3!
b1100011111000 u
b100000011010000100101100000 ^
b100000011010000100101100000 k
b100000011010000100101100000 m
b1100 >
b1100 D
b1100011111000 2
b1100011111000 :
b1100011111000 N
b100101100000 n
b11 V!
b11 W!
b1101 a
b1101 ]
b100101100000 W
b100101100000 ,
b1101 g
b100101100000 q
b100101100000 !!
b10010110000000 ,!
b100101100000 #!
b100101100000 |
b100101100000 '!
b100101100000 (!
b10010110001000 .!
b10010110001000 v
b100101100000 t
b100101100000 1
b10010110001000 1!
b10010110001000 3!
b100101100000 6!
b100101100000 9!
b100101100000 <!
b100101100000 A!
b10010110001000 u
b10010110001000 2
b100101100000 7
b100101100000 D!
b10010110001000 :
b10010110001000 N
b100101100000 H!
b100101100000 K!
b100101100000 G!
b100101100000 +
b100101100000 U
b100101100000 h
b1 C!
b1 ;!
b1 :!
b1 6
b1 E!
b1 I!
#40
0#
0%
08
0S
04!
0>!
0b
0B
#45
1#
1%
18
1S
14!
1>!
1b
1B
b1100 E
b1100 =
b1100 )
b1100 F
b1100 L
b1100 r
b1100 +!
b10010110001100 .!
b100000100100000110010000000 M
b10000 I
b10000 @
b100000100100000110010000000 <
b10010110001100 v
b10010110001100 1!
b100000100100000110010000000 '
b10000 (
b10000 O
b10000 Q
b100000100100000110010000000 R
b10010110001100 3!
b10010110001100 u
b100000100100000110010000000 ^
b100000100100000110010000000 k
b100000100100000110010000000 m
b10000 >
b10000 D
b10010110001100 2
b10010110001100 :
b10010110001100 N
b110010000000 n
b100 V!
b100 W!
b10010 a
b10010 ]
b110010000000 W
b110010000000 ,
b10010 g
b110010000000 q
b110010000000 !!
b11001000000000 ,!
b110010000000 #!
b110010000000 |
b110010000000 '!
b110010000000 (!
b11001000001100 .!
b11001000001100 v
b110010000000 t
b110010000000 1
b11001000001100 1!
b11001000001100 3!
b110010000000 6!
b110010000000 9!
b110010000000 <!
b110010000000 A!
b11001000001100 u
b11001000001100 2
b110010000000 7
b110010000000 D!
b11001000001100 :
b11001000001100 N
b110010000000 H!
b110010000000 K!
b110010000000 G!
b110010000000 +
b110010000000 U
b110010000000 h
b0 C!
b0 ;!
b0 :!
b0 6
b0 E!
b0 I!
#50
0#
0%
08
0S
04!
0>!
0b
0B
#55
1#
1%
18
1S
14!
1>!
1b
1B
b10000 E
b10000 =
b10000 )
b10000 F
b10000 L
b10000 r
b10000 +!
b11001000010000 .!
b100000100111111111111111111 M
b10100 I
b10100 @
b100000100111111111111111111 <
b11001000010000 v
b11001000010000 1!
b100000100111111111111111111 '
b10100 (
b10100 O
b10100 Q
b100000100111111111111111111 R
b11001000010000 3!
b11001000010000 u
b100000100111111111111111111 ^
b100000100111111111111111111 k
b100000100111111111111111111 m
b10100 >
b10100 D
b11001000010000 2
b11001000010000 :
b11001000010000 N
b11111111111111111111111111111111 n
b101 V!
b101 W!
b10011 a
b10011 ]
b11111111111111111111111111111111 W
b11111111111111111111111111111111 ,
b10011 g
b11111111111111111111111111111111 q
b11111111111111111111111111111111 !!
b11111111111111111111111111111100 ,!
b11111111111111111111111111111111 #!
b11111111111111111111111111111111 |
b11111111111111111111111111111111 '!
b11111111111111111111111111111111 (!
b1100 .!
1/!
1{
b1100 v
b11111111111111111111111111111111 t
b11111111111111111111111111111111 1
b1100 1!
b1100 3!
b11111111111111111111111111111111 6!
b11111111111111111111111111111111 9!
b11111111111111111111111111111111 <!
b11111111111111111111111111111111 A!
b1100 u
b1100 2
b11111111111111111111111111111111 7
b11111111111111111111111111111111 D!
b1100 :
b1100 N
b11111111111111111111111111111111 H!
b11111111111111111111111111111111 K!
b11111111111111111111111111111111 G!
b11111111111111111111111111111111 +
b11111111111111111111111111111111 U
b11111111111111111111111111111111 h
bx000010110000001100100100 C!
bx000010110000001100100100 ;!
bx000010110000001100100100 :!
bx000010110000001100100100 6
bx000010110000001100100100 E!
bx000010110000001100100100 I!
#60
0#
0%
08
0S
04!
0>!
0b
0B
#65
1#
1%
18
1S
14!
1>!
1b
1B
b10100 E
b10100 =
b10100 )
b10100 F
b10100 L
b10100 r
b10100 +!
b10000 .!
b1100000101000000000000000010 M
b11000 I
b11000 @
b1100000101000000000000000010 <
b10000 v
b10000 1!
b1100000101000000000000000010 '
b11000 (
b11000 O
b11000 Q
b1100000101000000000000000010 R
b10000 3!
b10000 u
b1100000101000000000000000010 ^
b1100000101000000000000000010 k
b1100000101000000000000000010 m
b11000 >
b11000 D
b10000 2
b10000 :
b10000 N
b10 n
b11100001 l
b110 V!
b110 W!
b10100 a
b10100 ]
b11100001 Z
b10 W
b10 ,
b11100001 /
b10100 g
b11100001 s
b11100001 7!
b11100001 F!
b10 q
b10 !!
b1 $!
b1000 ,!
b10 #!
b10 |
b10 '!
b11100 .!
0/!
b11111111111111111111111111111110 (!
b11111111111111111111111111111110 t
0{
b11100 v
b11100 1!
b11111111111111111111111111111110 1
b11111111111111111111111111111110 6!
b11111111111111111111111111111110 9!
b11100 3!
b11100 u
b11111111111111111111111111111110 <!
b11111111111111111111111111111110 A!
b11111111111111111111111111111110 7
b11100 2
b11100 :
b11111111111111111111111111111110 D!
b11111111111111111111111111111110 H!
b11100 N
b11111111111111111111111111111110 K!
b11111111111111111111111111111110 G!
b11111111111111111111111111111110 +
b11111111111111111111111111111110 U
b11111111111111111111111111111110 h
bx0000001100100100 C!
bx0000001100100100 ;!
bx0000001100100100 :!
bx0000001100100100 6
bx0000001100100100 E!
bx0000001100100100 I!
#70
0#
0%
08
0S
04!
0>!
0b
0B
#75
1#
1%
18
1S
14!
1>!
1b
1B
b11000 E
b11000 =
b11000 )
b11000 F
b11000 L
b11000 r
b11000 +!
b100000 .!
b110100101100000000001001110 M
b11100 I
b11100 @
b110100101100000000001001110 <
b100000 v
b100000 1!
b110100101100000000001001110 '
b11100 (
b11100 O
b11100 Q
b110100101100000000001001110 R
b100000 3!
b100000 u
b110100101100000000001001110 ^
b110100101100000000001001110 k
b110100101100000000001001110 m
b11100 >
b11100 D
b100000 2
b100000 :
b100000 N
b1001110 n
b11100000 l
b111 V!
b111 W!
b10100 _
b10110 a
b10110 ]
b10100 [
b11100000 Z
b1001110 W
b1001110 ,
b11100000 /
b10100 e
b10110 g
b11111111111111111111111111111110 i
b11100000 s
b11100000 7!
b11100000 F!
b1001110 q
b1001110 !!
b0 $!
b11111111111111111111111111111110 X
b11111111111111111111111111111110 -
b100111000 ,!
b1001110 #!
b1001110 |
b11111111111111111111111111111110 o
b11111111111111111111111111111110 &!
b11111111111111111111111111111110 0!
b1001110 '!
b101010000 .!
b1001100 (!
b1001100 t
b101010000 v
b101010000 1!
b1001100 1
b1001100 6!
b1001100 9!
b101010000 3!
b101010000 u
b1001100 <!
b1001100 A!
b1001100 7
b101010000 2
b101010000 :
b1001100 D!
b1001100 H!
b101010000 N
b1001100 K!
b1001100 G!
b1001100 +
b1001100 U
b1001100 h
b101011010110000000000000100 C!
b101011010110000000000000100 ;!
b101011010110000000000000100 :!
b101011010110000000000000100 6
b101011010110000000000000100 E!
b101011010110000000000000100 I!
#80
0#
0%
08
0S
04!
0>!
0b
0B
#85
1#
1%
18
1S
14!
1>!
1b
1B
b11100 E
b11100 =
b11100 )
b11100 F
b11100 L
b11100 r
b11100 +!
b101010100 .!
b100000101110000000000000011 M
b100000 I
b100000 @
b100000101110000000000000011 <
b101010100 v
b101010100 1!
b100000101110000000000000011 '
b100000 (
b100000 O
b100000 Q
b100000101110000000000000011 R
b101010100 3!
b101010100 u
b100000101110000000000000011 ^
b100000101110000000000000011 k
b100000101110000000000000011 m
b100000 >
b100000 D
b101010100 2
b101010100 :
b101010100 N
b11 n
b1000 V!
b1000 W!
b0 _
b10111 a
b10111 ]
b0 [
b11 W
b11 ,
b0 e
b10111 g
b0 i
b11 q
b11 !!
b0 X
b0 -
b1100 ,!
b11 #!
b11 |
b0 o
b0 &!
b0 0!
b11 '!
b11 (!
b101000 .!
b101000 v
b11 t
b11 1
b101000 1!
b101000 3!
b11 6!
b11 9!
b11 <!
b11 A!
b101000 u
b101000 2
b11 7
b11 D!
b101000 :
b101000 N
b11 H!
b11 K!
b11 G!
b11 +
b11 U
b11 h
b1100000001100011110000000100 C!
b1100000001100011110000000100 ;!
b1100000001100011110000000100 :!
b1100000001100011110000000100 6
b1100000001100011110000000100 E!
b1100000001100011110000000100 I!
#90
0#
0%
08
0S
04!
0>!
0b
0B
#95
1#
1%
18
1S
14!
1>!
1b
1B
b100000 E
b100000 =
b100000 )
b100000 F
b100000 L
b100000 r
b100000 +!
b101100 .!
b10011000001100000000000000 M
b100100 I
b100100 @
b10011000001100000000000000 <
b101100 v
b101100 1!
b10011000001100000000000000 '
b100100 (
b100100 O
b100100 Q
b10011000001100000000000000 R
b101100 3!
b101100 u
b10011000001100000000000000 ^
b10011000001100000000000000 k
b10011000001100000000000000 m
b100100 >
b100100 D
b101100 2
b101100 :
b101100 N
bx n
b11110000 l
b1001 V!
b1001 W!
b10011 _
b0 `
b11000 a
b11000 ]
b0 \
b10011 [
b11110000 Z
bx W
bx ,
b11110000 /
b10011 e
b0 f
b11000 g
b0 j
b11111111111111111111111111111111 i
b11110000 s
b11110000 7!
b11110000 F!
bx q
bx !!
1"!
b11111111111111111111111111111111 X
b0 Y
b0 .
b11111111111111111111111111111111 -
bx00 ,!
bx #!
bx |
b11111111111111111111111111111111 o
b0 p
b0 ~
b0 w
b11111111111111111111111111111111 &!
b11111111111111111111111111111111 0!
bx '!
b0 4
b0 #!
b0 |
b0 8!
b0 @!
b0 '!
b11111111111111111111111111111111 (!
bx .!
x/!
x{
bx v
b11111111111111111111111111111111 t
b11111111111111111111111111111111 1
bx 1!
bx 3!
b11111111111111111111111111111111 6!
b11111111111111111111111111111111 9!
b11111111111111111111111111111111 <!
b11111111111111111111111111111111 A!
bx u
bx 2
b11111111111111111111111111111111 7
b11111111111111111111111111111111 D!
bx :
bx N
b11111111111111111111111111111111 H!
b11111111111111111111111111111111 K!
b11111111111111111111111111111111 G!
b11111111111111111111111111111111 +
b11111111111111111111111111111111 U
b11111111111111111111111111111111 h
bx000010110000001100100100 C!
bx000010110000001100100100 ;!
bx000010110000001100100100 :!
bx000010110000001100100100 6
bx000010110000001100100100 E!
bx000010110000001100100100 I!
#100
0#
0%
08
0S
04!
0>!
0b
0B
#105
1#
1%
18
1S
14!
1>!
1b
1B
b100100 E
b100100 =
b100100 )
b100100 F
b100100 L
b100100 r
b100100 +!
b110001011011101111111111111100 M
b101000 I
b101000 @
b110001011011101111111111111100 <
b110001011011101111111111111100 '
b101000 (
b101000 O
b101000 Q
b110001011011101111111111111100 R
b110001011011101111111111111100 ^
b110001011011101111111111111100 k
b110001011011101111111111111100 m
b101000 >
b101000 D
b11111111111111111111111111111100 n
b11010000 l
b11000000 l
b1010 V!
b1 Y!
b1011 _
b1110 a
b1110 ]
b1011 [
b11000000 Z
b11111111111111111111111111111100 W
b11111111111111111111111111111100 ,
b11000000 /
b1011 e
b1110 g
b1100100100 i
b11000000 s
b11000000 7!
b11000000 F!
b11111111111111111111111111111100 q
b11111111111111111111111111111100 !!
0J!
0"!
b1100100100 X
b1100100100 -
bx000010110000001100100100 K!
b11111111111111111111111111110000 ,!
b11111111111111111111111111111100 #!
b11111111111111111111111111111100 |
bx000010110000001100100100 G!
b1100100100 o
b1100100100 &!
b1100100100 0!
bx000010110000001100100100 +
b11111111111111111111111111111100 '!
bx000010110000001100100100 U
bx000010110000001100100100 h
b1100100000 (!
b10100 .!
1/!
1{
b10100 v
b1100100000 t
b1100100000 1
b10100 1!
b10100 3!
b1100100000 6!
b1100100000 9!
b1100100000 <!
b1100100000 A!
b10100 u
b10100 2
b1100100000 7
b1100100000 D!
b10100 :
b10100 N
b1100100000 H!
b1011010 C!
b1011010 ;!
b1011010 :!
b1011010 6
b1011010 E!
b1011010 I!
b1011010 K!
b1011010 G!
b1011010 +
b1011010 U
b1011010 h
#110
0#
0%
08
0S
04!
0>!
0b
0B
#115
1#
1%
18
1S
14!
1>!
1b
1B
b101000 E
b101000 =
b101000 )
b101000 F
b101000 L
b101000 r
b101000 +!
b11000 .!
b110001100011110000000000000100 M
b101100 I
b101100 @
b110001100011110000000000000100 <
b11000 v
b11000 1!
b110001100011110000000000000100 '
b101100 (
b101100 O
b101100 Q
b110001100011110000000000000100 R
b11000 3!
b11000 u
b110001100011110000000000000100 ^
b110001100011110000000000000100 k
b110001100011110000000000000100 m
b101100 >
b101100 D
b11000 2
b11000 :
b11000 N
b100 n
b1011 V!
b10 Y!
b1100 _
b1111 a
b1111 ]
b1100 [
b100 W
b100 ,
b1100 e
b1111 g
b11000111100 i
b100 q
b100 !!
b11000111100 X
b11000111100 -
b10000 ,!
b100 #!
b100 |
b11000111100 o
b11000111100 &!
b11000111100 0!
b100 '!
b11001000000 (!
b111000 .!
0/!
0{
b111000 v
b11001000000 t
b11001000000 1
b111000 1!
b111000 3!
b11001000000 6!
b11001000000 9!
b11001000000 <!
b11001000000 A!
b111000 u
b111000 2
b11001000000 7
b11001000000 D!
b111000 :
b111000 N
b11001000000 H!
b11111111111111111111111111111110 C!
b11111111111111111111111111111110 ;!
b11111111111111111111111111111110 :!
b11111111111111111111111111111110 6
b11111111111111111111111111111110 E!
b11111111111111111111111111111110 I!
b11111111111111111111111111111110 K!
b11111111111111111111111111111110 G!
b11111111111111111111111111111110 +
b11111111111111111111111111111110 U
b11111111111111111111111111111110 h
#120
0#
0%
08
0S
04!
0>!
0b
0B
#125
1#
1%
18
1S
14!
1>!
1b
1B
b101100 E
b101100 =
b101100 )
b101100 F
b101100 L
b101100 r
b101100 +!
b111100 .!
b110001101100010000000000000000 M
b110000 I
b110000 @
b110001101100010000000000000000 <
b111100 v
b111100 1!
b110001101100010000000000000000 '
b110000 (
b110000 O
b110000 Q
b110001101100010000000000000000 R
b111100 3!
b111100 u
b110001101100010000000000000000 ^
b110001101100010000000000000000 k
b110001101100010000000000000000 m
b110000 >
b110000 D
b111100 2
b111100 :
b111100 N
b0 n
b1100 V!
b11 Y!
b1101 _
b10001 a
b10001 ]
b1101 [
b0 W
b0 ,
b1101 e
b10001 g
b100101100000 i
b0 q
b0 !!
b100101100000 X
b100101100000 -
b0 ,!
b0 #!
b0 |
b100101100000 o
b100101100000 &!
b100101100000 0!
b0 '!
b100101100000 (!
b101100 .!
b101100 v
b100101100000 t
b100101100000 1
b101100 1!
b101100 3!
b100101100000 6!
b100101100000 9!
b100101100000 <!
b100101100000 A!
b101100 u
b101100 2
b100101100000 7
b100101100000 D!
b101100 :
b101100 N
b100101100000 H!
b1 C!
b1 ;!
b1 :!
b1 6
b1 E!
b1 I!
b1 K!
b1 G!
b1 +
b1 U
b1 h
#130
0#
0%
08
0S
04!
0>!
0b
0B
#135
1#
1%
18
1S
14!
1>!
1b
1B
b110000 E
b110000 =
b110000 )
b110000 F
b110000 L
b110000 r
b110000 +!
b110000 .!
b1001110011111000000000000000 M
b110100 I
b110100 @
b1001110011111000000000000000 <
b110000 v
b110000 1!
b1001110011111000000000000000 '
b110100 (
b110100 O
b110100 Q
b1001110011111000000000000000 R
b110000 3!
b110000 u
b1001110011111000000000000000 ^
b1001110011111000000000000000 k
b1001110011111000000000000000 m
b110100 >
b110100 D
b110000 2
b110000 :
b110000 N
bx n
b11100000 l
b11110000 l
b11110001 l
b1101 V!
b1010 W!
b1110 _
b1111 `
b10000 a
b10000 ]
b1111 \
b1110 [
b11110001 Z
bx W
bx ,
b11110001 /
b1110 e
b1111 f
b10000 g
b11111111111111111111111111111110 j
b1011010 i
b11110001 s
b11110001 7!
b11110001 F!
bx q
bx !!
1J!
1"!
b1 $!
b1011010 X
b11111111111111111111111111111110 Y
b11111111111111111111111111111110 .
b1011010 -
b100101100000 K!
bx00 ,!
b100101100000 G!
b1011010 o
b11111111111111111111111111111110 p
b11111111111111111111111111111110 ~
b11111111111111111111111111111110 w
b1011010 &!
b1011010 0!
b100101100000 +
b100101100000 U
b11111111111111111111111111111110 4
b11111111111111111111111111111110 #!
b11111111111111111111111111111110 |
b11111111111111111111111111111110 8!
b100101100000 h
b11111111111111111111111111111110 @!
b11111111111111111111111111111110 '!
bx .!
x/!
b1011100 (!
b1011100 t
x{
bx v
bx 1!
b1011100 1
b1011100 6!
b1011100 9!
bx 3!
bx u
b1011100 <!
b1011100 A!
b1011100 7
bx 2
bx :
b1011100 D!
b1011100 H!
bx N
b1011100 K!
b1011100 G!
b1011100 +
b1011100 U
b1011100 h
b110010100100000000000000100 C!
b110010100100000000000000100 ;!
b110010100100000000000000100 :!
b110010100100000000000000100 6
b110010100100000000000000100 E!
b110010100100000000000000100 I!
#140
0#
0%
08
0S
04!
0>!
0b
0B
#145
1#
1%
18
1S
14!
1>!
1b
1B
b110100 E
b110100 =
b110100 )
b110100 F
b110100 L
b110100 r
b110100 +!
b11010000101001010100000000000 M
b111000 I
b111000 @
b11010000101001010100000000000 <
b11010000101001010100000000000 '
b111000 (
b111000 O
b111000 Q
b11010000101001010100000000000 R
b11010000101001010100000000000 ^
b11010000101001010100000000000 k
b11010000101001010100000000000 m
b111000 >
b111000 D
b11110011 l
b1110 V!
b1 X!
b10000 _
b10100 `
b10101 a
b10101 ]
b10100 \
b10000 [
b11110011 Z
b11110011 /
b10000 e
b10100 f
b10101 g
b1011100 i
b11110011 s
b11110011 7!
b11110011 F!
b11 $!
b1011100 X
b1011100 -
b1011100 o
b1011100 &!
b1011100 0!
b11111111111111111111111111111110 (!
b11111111111111111111111111111110 t
b11111111111111111111111111111110 1
b11111111111111111111111111111110 6!
b11111111111111111111111111111110 9!
b11111111111111111111111111111110 <!
b11111111111111111111111111111110 A!
b11111111111111111111111111111110 7
b11111111111111111111111111111110 D!
b11111111111111111111111111111110 H!
b11111111111111111111111111111110 K!
b11111111111111111111111111111110 G!
b11111111111111111111111111111110 +
b11111111111111111111111111111110 U
b11111111111111111111111111111110 h
bx0000001100100100 C!
bx0000001100100100 ;!
bx0000001100100100 :!
bx0000001100100100 6
bx0000001100100100 E!
bx0000001100100100 I!
#150
0#
0%
08
0S
04!
0>!
0b
0B
